This file describes the output format:

tixboxes.dat (not implemented this year):
id val0 val1 val2 val3 val4 val5 val6 val7 val8 val9 val10 val11 quality

triangle1.dat:
id tec1 soc1 cul1 delta1 tec2 soc2 cul2 delta2 px py pvarx pvary np ctecx ctecy csocx csocy cculx cculy triA lownflag lowAflag

triangle1.dat (not yet implemented):
id tec1 soc1 cul1 delta1 tec2 soc2 cul2 delta2 px py pvarx pvary np ctecx ctecy csocx csocy cculx cculy triA lownflag lowAflag
