0.000000000000000000e+00 3.316456247579047667e-01 3.388767643051602274e-01 3.294776109369351169e-01 8.590881360716980455e-03 3.221561876090153209e-01 3.490107395959853864e-01 3.288330727949994592e-01 4.985307921200681728e-04 1.590612244897959044e+02 1.754948979591836746e+02 3.793970314264826449e+00 4.767553440278796906e+00 1.960000000000000000e+02 1.591713785863756812e+02 5.609262996394843981e+01 5.908831864563749292e+01 2.308475038500046708e+02 2.650606931203610088e+02 2.337236076383688612e+02
2.000000000000000000e+00 3.535807593991340259e-01 3.067042174902704921e-01 3.397150231105954821e-01 7.135892120899301437e-03 4.138197601860822417e-01 2.168941041840664607e-01 3.692861356298512976e-01 3.491716705845674838e-04 1.800800000000000125e+02 1.480399999999999920e+02 3.148586984664708766e+00 3.988784275941733348e+00 1.250000000000000000e+02 1.631298556852093213e+02 4.515638359988878392e+01 6.286952065484969410e+01 2.202207972417067481e+02 2.679158634252381148e+02 2.209365469088764655e+02
4.000000000000000000e+00 3.012494584233858519e-01 3.076002629399303689e-01 3.911502786366837792e-01 4.851175756154786460e-03 2.045531176290997510e-01 2.367594174022505105e-01 5.586874649686496275e-01 1.673457480715363343e-04 1.976065573770491710e+02 1.823934426229508290e+02 2.189982322891379507e+00 2.765588832594275015e+00 6.100000000000000000e+01 1.625248242199300535e+02 4.218847237737770683e+01 6.215776419070533620e+01 2.174392383722132536e+02 2.678512965425497896e+02 2.188752734583307245e+02
6.000000000000000000e+00 3.095153503155970709e-01 3.967114916621683474e-01 2.937731580222345262e-01 5.502566498395375719e-03 2.439543232012196528e-01 5.740756395419003288e-01 1.819700372568799074e-01 2.212593058385213009e-04 1.227721518987341796e+02 1.875949367088607573e+02 2.828200515193708853e+00 2.808301380116433155e+00 7.900000000000000000e+01 1.608344787441471340e+02 5.497658343913315093e+01 6.128501704515802118e+01 2.302153271820357929e+02 2.657231424670783326e+02 2.309289537615228198e+02
8.000000000000000000e+00 3.413074399853710528e-01 3.347654728138312885e-01 3.239270872007976587e-01 2.822238677568208662e-02 3.622854664112782896e-01 3.350755850188132379e-01 3.026389485699084725e-01 5.390051696778508025e-03 1.609668737060041508e+02 1.679399585921325126e+02 1.555072312161616921e+01 1.244642837501392307e+01 4.830000000000000000e+02 1.625803516006906193e+02 5.595235090547009804e+01 6.301369252011966893e+01 2.312213675146709022e+02 2.674871350637276350e+02 2.319351173746698578e+02
1.000000000000000000e+01 3.158604672460511575e-01 3.796314075646422537e-01 3.045081251893065333e-01 7.152772692008751466e-03 2.648168198586139943e-01 5.086920848581089061e-01 2.264910952832770996e-01 3.607455029778136309e-04 1.368493150684931550e+02 1.795000000000000000e+02 3.335862554561205062e+00 3.882256793183467281e+00 1.460000000000000000e+02 1.632837427849002268e+02 5.040692390752815299e+01 6.434212929992787622e+01 2.260000000000000000e+02 2.687907071827764298e+02 2.260000000000000568e+02
1.200000000000000000e+01 3.121428862519629588e-01 3.651202710911291005e-01 3.227368426569079407e-01 6.620777108384323650e-03 2.418502365069601645e-01 4.564279832699735251e-01 3.017217802230663382e-01 3.088513636468173717e-04 1.477931034482758719e+02 1.984310344827586334e+02 3.302343058943698839e+00 3.386647558938795655e+00 1.160000000000000000e+02 1.621446465706243032e+02 6.498625640369681378e+01 6.134062514900425356e+01 2.410000000000000000e+02 2.670698961075305533e+02 2.410000000000000000e+02
1.400000000000000000e+01 3.692475814638052078e-01 2.982473440892983163e-01 3.325050744468964758e-01 5.112419317225664998e-03 4.755650039083456626e-01 1.805894267663831487e-01 3.438455693252710499e-01 1.748671119532597777e-04 1.791515151515151558e+02 1.236212121212121247e+02 2.076144622177047427e+00 3.013933056681269207e+00 6.600000000000000000e+01 1.616320616652930937e+02 3.167425652948753623e+01 6.122206163087419384e+01 2.070000000000000000e+02 2.653194173116407910e+02 2.070000000000000000e+02
1.600000000000000000e+01 2.944886509556249310e-01 4.061057469348826610e-01 2.994056021094925191e-01 8.219107050197906397e-03 1.726490551464408552e-01 6.099972095226576796e-01 2.173537353309012987e-01 4.995970598208087417e-04 1.221125827814569504e+02 1.943178807947019777e+02 4.351361279515766789e+00 4.146922358254710339e+00 1.510000000000000000e+02 1.610009817947196780e+02 4.913811946307367862e+01 6.012451203167788094e+01 2.238612903808476631e+02 2.651904313765872416e+02 2.267247368454348475e+02
1.800000000000000000e+01 3.516619700208925003e-01 3.397284320329165275e-01 3.086095979461910277e-01 7.605645640672556093e-03 4.016993611638817741e-01 3.579440917285662827e-01 2.403565471075519711e-01 3.770200640347187628e-04 1.498644067796610102e+02 1.409491525423728717e+02 3.055739956538832125e+00 4.469951384915778370e+00 5.900000000000000000e+01 1.603818745895746645e+02 3.586938407751051727e+01 5.996301525890149264e+01 2.112105967513082589e+02 2.661700043143917469e+02 2.119303978547584961e+02
2.200000000000000000e+01 3.393697698261575746e-01 3.295496823707984579e-01 3.310805478030439675e-01 6.621323956767130939e-03 3.522432752512449916e-01 3.194013637160620922e-01 3.283553610326929717e-01 3.016121664850210122e-04 1.639893617021276668e+02 1.706914893617021391e+02 3.102828774052227789e+00 3.503878081724442151e+00 9.400000000000000000e+01 1.621396088477892192e+02 5.716595955628480397e+01 6.074337730949920910e+01 2.327893842766209218e+02 2.664042304932665957e+02 2.320714895547386334e+02
2.400000000000000000e+01 2.923893976151741847e-01 4.177250509548398050e-01 2.898855514299860658e-01 1.050744462296790242e-02 1.633854686638108178e-01 6.552546161708249217e-01 1.813599151653642605e-01 8.255299136843279343e-04 1.154320652173912976e+02 2.005081521739130324e+02 5.042833278426678945e+00 5.866720702652384212e+00 3.680000000000000000e+02 1.610394447156096760e+02 5.461577807930365225e+01 6.197541897441011116e+01 2.290000000000000000e+02 2.674840283909269942e+02 2.290000000000000000e+02
2.800000000000000000e+01 3.332858064602329806e-01 3.817878351129795900e-01 2.849263584267873739e-01 5.636116240131762607e-03 3.453790250774942394e-01 5.253051974802225299e-01 1.293157774422832862e-01 2.301301861160611416e-04 1.237215189873417671e+02 1.550886075949367182e+02 2.662142987822811779e+00 3.142964308338008994e+00 7.900000000000000000e+01 1.626468845826111647e+02 3.963899373624002465e+01 6.245988904007768383e+01 2.160000000000000000e+02 2.686152679785774353e+02 2.159999999999999432e+02
3.000000000000000000e+01 3.439935048234237791e-01 3.366063390444382630e-01 3.194001561321380689e-01 2.243290761965906904e-02 3.729648574195549293e-01 3.428397148631424085e-01 2.841954277173027732e-01 3.344526247178520716e-03 1.550659340659340728e+02 1.397472527472527588e+02 9.477912087275031539e+00 1.278636241787222083e+01 3.640000000000000000e+02 1.594068709835319169e+02 2.914621117477469170e+01 5.938953740339249521e+01 2.052085583735485841e+02 2.647885002692079865e+02 2.059255389220524819e+02
3.200000000000000000e+01 3.493454340833487271e-01 3.309771454103880295e-01 3.196774205062632990e-01 4.024701828110701859e-03 3.916739470607091822e-01 3.244211885213404978e-01 2.839048644179504866e-01 1.124343452061561015e-04 1.612800000000000011e+02 1.619600000000000080e+02 1.949769217112629294e+00 2.068429355815662785e+00 5.000000000000000000e+01 1.640668280698422450e+02 5.559340473300852636e+01 6.373713642030566007e+01 2.307789218587188884e+02 2.688985990932000050e+02 2.300627703456503070e+02
3.400000000000000000e+01 3.121776573920412301e-01 3.782421214166801771e-01 3.095802211912785373e-01 1.574709593027221605e-02 2.416525889146881323e-01 5.044211057067430337e-01 2.539263053785690283e-01 1.455568029725990298e-03 1.378802395209580709e+02 1.871017964071856170e+02 1.001663430583752756e+01 5.267269549723858191e+00 1.670000000000000000e+02 1.614160361651250923e+02 5.418541474582764295e+01 6.117568222486286800e+01 2.292149394375860822e+02 2.678546089097683307e+02 2.299363879208267747e+02
3.800000000000000000e+01 3.331113597990554842e-01 3.322162977348213642e-01 3.346723424661230961e-01 1.762368157920420064e-02 3.258466348802146473e-01 3.264115674551028023e-01 3.477417976646825504e-01 2.136724011080848480e-03 1.674389140271493090e+02 1.727511312217194472e+02 8.217745212479153238e+00 9.322116993267922425e+00 2.210000000000000000e+02 1.631688299419630823e+02 5.514921999749424231e+01 6.347585413783038177e+01 2.292229685848456597e+02 2.690261782069324568e+02 2.299404774857669054e+02
4.200000000000000000e+01 3.657381101672821933e-01 3.391860390529432556e-01 2.950758507797746066e-01 7.983416998954162569e-03 4.602486996448034162e-01 3.620299490706704315e-01 1.777213512845261800e-01 4.249447696669441808e-04 1.432727272727272805e+02 1.496969696969696884e+02 3.221826390303518028e+00 4.693547140133728313e+00 3.300000000000000000e+01 1.605243399296466578e+02 5.552252648404197544e+01 6.140733990940014309e+01 2.300000000000000000e+02 2.653609826728099961e+02 2.300000000000000000e+02
4.600000000000000000e+01 2.816722796588009281e-01 3.566125455212484918e-01 3.617151748199506356e-01 7.671855565705779090e-03 7.891066025290176256e-02 4.502222167968166766e-01 4.708671229502814914e-01 4.179592581850837462e-04 1.673508771929824661e+02 2.162807017543859729e+02 3.227211937780216644e+00 4.612800848864329950e+00 1.710000000000000000e+02 1.626006127419951213e+02 5.614138315856359895e+01 6.303084405044687344e+01 2.300000000000000000e+02 2.678931337542923643e+02 2.299999999999999716e+02
4.800000000000000000e+01 3.505032502544787043e-01 3.426973073875935194e-01 3.067994423579278318e-01 5.874018302853480956e-03 3.991979198506896420e-01 3.664387597001291241e-01 2.343633204491811783e-01 2.303542620647975670e-04 1.502580645161290249e+02 1.573870967741935374e+02 3.362996698115626071e+00 2.462764676303811129e+00 9.300000000000000000e+01 1.611796699034088363e+02 5.186472638242628364e+01 6.317585299720948200e+01 2.272219091943010199e+02 2.678123617333804418e+02 2.279362282650035922e+02
5.000000000000000000e+01 2.920985484489297956e-01 3.800258288561718656e-01 3.278756226948982833e-01 6.439034358021433410e-03 1.513035700288005436e-01 5.177803423745338529e-01 3.309160875966656312e-01 3.013103684896797961e-04 1.457053571428571388e+02 2.028571428571428612e+02 3.220022162903827478e+00 3.367006785540766156e+00 1.120000000000000000e+02 1.628716471961145658e+02 5.341504818222631457e+01 6.299979217288604616e+01 2.292213068083498797e+02 2.672648590376464881e+02 2.299343292970590937e+02
5.200000000000000000e+01 3.548887574450421689e-01 3.665397773183217134e-01 2.785714652366360622e-01 6.658780228016535768e-03 4.322581739775460119e-01 4.752122074269258811e-01 9.252961859552817636e-02 3.303134596850465857e-04 1.253846153846153868e+02 1.507769230769230830e+02 3.517832845516409623e+00 3.363298254381996699e+00 1.300000000000000000e+02 1.627921729703057565e+02 5.153041837736611797e+01 6.355285008581715545e+01 2.262232190753599070e+02 2.681873994267153307e+02 2.269375313064549573e+02
5.400000000000000000e+01 3.400316934336227725e-01 3.117327670670277939e-01 3.482355394993494890e-01 6.391063039353554742e-02 3.665772633500130051e-01 2.327416625202458900e-01 4.006810741297409106e-01 2.869373473505532415e-02 1.793120653159963638e+02 1.581312367704868507e+02 3.122122720685000274e+01 3.235812719078964506e+01 3.307000000000000000e+03 1.603538036696685651e+02 4.719313058842288910e+01 6.296773080921558829e+01 2.214449905773653313e+02 2.642370685346057826e+02 2.228501384564872012e+02
5.600000000000000000e+01 3.608179705690928163e-01 3.325000842778058630e-01 3.066819451531013208e-01 5.778080684791614581e-03 4.359088376226351036e-01 3.314763293203879524e-01 2.326148330569768885e-01 2.249743578711521370e-04 1.510999999999999943e+02 1.453833333333333258e+02 2.461029594837627954e+00 3.286800200127101945e+00 6.000000000000000000e+01 1.599965870802473944e+02 4.687778213939327543e+01 5.934669655334548821e+01 2.212085063082328702e+02 2.651767634970973972e+02 2.219269916999645602e+02
5.800000000000000000e+01 3.504918381316647347e-01 3.577953320361124123e-01 2.917128298322230195e-01 8.798753415468915651e-03 4.059562007439061482e-01 4.336592175530523119e-01 1.603845817030413734e-01 4.067482438025587241e-04 1.353010752688172147e+02 1.492688172043010866e+02 2.522095673389978199e+00 5.799777127616767558e+00 9.300000000000000000e+01 1.619716820967985313e+02 4.516649082767355594e+01 6.171943469836593721e+01 2.202167826680769736e+02 2.667492371355527325e+02 2.209324745983575440e+02
6.200000000000000000e+01 4.163208051298865064e-01 3.038921949292768265e-01 2.797869999408365560e-01 5.914530125935826312e-03 6.522995809506031417e-01 2.299884065644380027e-01 1.177120124849587723e-01 2.494415803729472777e-04 1.499166666666666572e+02 1.085833333333333286e+02 2.498610725094158269e+00 3.590432244689168773e+00 1.080000000000000000e+02 1.604274810045168635e+02 4.759491005662454199e+01 6.078352151149523763e+01 2.230000000000000000e+02 2.658214919284783946e+02 2.230000000000000000e+02
6.400000000000000000e+01 2.948290756279487446e-01 3.552987040590671608e-01 3.498722203129841501e-01 7.572258172126066986e-03 1.528595742162985327e-01 4.312576478651390377e-01 4.158827779185623741e-01 4.131271552943348497e-04 1.603504273504273385e+02 1.968547008547008659e+02 4.032594209276190611e+00 3.684722344582554765e+00 1.170000000000000000e+02 1.600137809243687457e+02 4.884800152779769178e+01 5.934668953262094249e+01 2.232085184684844990e+02 2.652119324228561936e+02 2.239271266479316012e+02
6.600000000000000000e+01 3.172962274037655628e-01 3.697034041904270762e-01 3.130003684058073610e-01 1.075021701549683933e-02 2.651032929728414089e-01 4.700744701461355701e-01 2.648222368810229654e-01 8.068345902796068576e-04 1.411983471074380248e+02 1.754628099173553721e+02 5.028217624025215216e+00 5.779284735092056202e+00 3.630000000000000000e+02 1.598363080130696687e+02 4.661103297643921906e+01 6.052647886327692817e+01 2.214279471467414453e+02 2.657377411501225311e+02 2.228606152979514263e+02
6.800000000000000000e+01 2.912013669936361904e-01 4.050494130966341144e-01 3.037492199097296952e-01 1.041117370412598074e-02 1.568865853109582820e-01 6.087759533799772527e-01 2.343374613090644376e-01 8.057566327203367646e-04 1.272988505747126453e+02 1.940344827586206975e+02 5.283056722579638098e+00 5.463985063892330629e+00 3.480000000000000000e+02 1.636332384076833364e+02 4.600081597279626067e+01 6.377748753073120014e+01 2.217787261747861294e+02 2.679929595167443495e+02 2.210658768055652956e+02
7.000000000000000000e+01 3.222827071481937922e-01 3.704964093386683421e-01 3.072208835131378657e-01 4.091862467791313428e-03 2.888140829937024812e-01 4.749019303890790189e-01 2.362839866172184722e-01 1.158764192923614509e-04 1.367058823529411882e+02 1.745294117647058840e+02 1.850215860719286454e+00 2.278225497769068575e+00 5.100000000000000000e+01 1.596899278147420205e+02 4.915065839844788798e+01 5.886160342090031605e+01 2.252068373764047351e+02 2.650695635116301219e+02 2.259266418694212177e+02
7.200000000000000000e+01 2.828234463964148793e-01 3.648368418181385242e-01 3.523397117854465965e-01 9.574214743715760145e-03 8.878891065985804187e-02 4.774959361789231638e-01 4.337151531612186139e-01 6.875006365684336674e-04 1.580474576271186322e+02 2.049389830508474688e+02 4.887665413810266202e+00 5.037117044337634297e+00 2.950000000000000000e+02 1.604853438129616450e+02 4.574960591510011909e+01 6.023814939550818082e+01 2.207910747533463223e+02 2.652309157181759360e+02 2.200755121040189124e+02
7.400000000000000000e+01 3.132681397788555921e-01 3.671670242772409054e-01 3.195648359439034469e-01 1.031042875403337389e-02 2.486310957766798835e-01 4.619177408813049390e-01 2.894511633420150942e-01 7.421516389585122156e-04 1.475555555555555429e+02 1.833425925925925810e+02 5.521003666135488430e+00 4.825655530925832437e+00 3.240000000000000000e+02 1.627191578322375278e+02 5.140890078117814710e+01 6.377865825831991486e+01 2.270000000000000000e+02 2.682249344045886232e+02 2.269999999999999432e+02
7.600000000000000000e+01 3.755554781781718643e-01 3.521718857046305939e-01 2.722726361171975418e-01 5.426440479192193994e-03 5.117656333843034755e-01 4.239356996107739861e-01 6.429866700492242737e-02 2.225816602035150555e-04 1.250990099009900973e+02 1.333564356435643674e+02 3.019753286411502202e+00 2.690592920837383328e+00 1.010000000000000000e+02 1.604274810045168635e+02 4.759491005662465568e+01 6.085656796448013495e+01 2.228714149887153155e+02 2.674778118684179731e+02 2.257565792922494552e+02
7.800000000000000000e+01 3.118667915507749022e-01 3.722830162379863750e-01 3.158501922112387783e-01 4.675739619804946019e-03 2.481543848586295620e-01 4.817896807311888852e-01 2.700559344101814974e-01 1.546502525973319586e-04 1.417272727272727195e+02 1.778000000000000114e+02 2.392826745652668397e+00 2.315167380558044385e+00 5.500000000000000000e+01 1.615640667990079464e+02 4.531062038160263228e+01 6.212615141573900246e+01 2.217844904486508426e+02 2.655105603084153927e+02 2.210745420486665864e+02
8.000000000000000000e+01 3.689992639793079898e-01 3.486857747616333714e-01 2.823149612590586388e-01 4.368510788284983223e-03 4.813964761571927764e-01 4.070868077061897683e-01 1.115167161366175663e-01 1.384525605364587291e-04 1.323454545454545439e+02 1.469818181818181699e+02 2.037986366429388685e+00 2.445707996328627232e+00 5.500000000000000000e+01 1.614877257631972611e+02 5.607241550837878208e+01 6.118263567036036932e+01 2.312149758945469955e+02 2.663205087740421391e+02 2.319310450641507657e+02
8.200000000000000000e+01 3.637133757273294243e-01 3.501578116206004454e-01 2.861288126520701858e-01 5.742615853438721128e-03 4.573355449773841563e-01 4.083580934658820882e-01 1.343063615567336722e-01 2.369537161096941190e-04 1.342380952380952408e+02 1.400666666666666629e+02 2.709854360956758690e+00 3.172100600898749345e+00 1.050000000000000000e+02 1.610546660628719167e+02 4.475551322806092003e+01 6.056934874188218032e+01 2.202127680944471706e+02 2.669128072033505532e+02 2.209330455679247507e+02
8.400000000000000000e+01 3.440052292565120573e-01 3.136991329322156297e-01 3.422956378112723130e-01 6.556119034535209771e-03 3.748822885259974202e-01 2.448859609362377954e-01 3.802317505377648676e-01 3.010055114062108587e-04 1.764592592592592553e+02 1.688370370370370495e+02 3.269982360271741051e+00 3.313736634089943234e+00 1.350000000000000000e+02 1.609940312228909818e+02 5.915015820662262058e+01 6.069674251255746356e+01 2.328701581143246813e+02 2.662630570338275788e+02 2.357405918676978729e+02
8.800000000000000000e+01 3.555252841267845798e-01 3.599637443857631180e-01 2.845109714874523021e-01 4.916131247693334393e-03 4.260358439235786276e-01 4.408884323251545667e-01 1.330757237512668334e-01 1.753055103120254685e-04 1.315074626865671519e+02 1.470149253731343322e+02 2.433430931699926525e+00 2.600186774654379196e+00 6.700000000000000000e+01 1.609944392646816880e+02 4.659688302995562026e+01 6.198389445378524698e+01 2.208869614878890957e+02 2.674423090031035599e+02 2.237558885755316851e+02
9.000000000000000000e+01 3.978192605649819025e-01 3.184111494204215353e-01 2.837695900145965622e-01 5.764601898047111775e-03 5.826172251787210543e-01 2.848093480964966062e-01 1.325734267247822840e-01 2.411541795419995288e-04 1.467931034482758719e+02 1.219080459770114970e+02 3.280516958961509744e+00 2.654998252734651398e+00 8.700000000000000000e+01 1.609421328349676799e+02 4.845143453859799365e+01 6.190307411526725190e+01 2.242174480626901243e+02 2.669831450548681460e+02 2.249333154638587757e+02
9.200000000000000000e+01 3.227265752845882019e-01 3.848437660106626135e-01 2.924296587047492402e-01 7.384122259325196641e-03 3.011273885250361770e-01 5.330887557782144626e-01 1.657838556967492494e-01 3.884135438816460422e-04 1.265862068965517295e+02 1.781586206896551801e+02 4.118228957974198856e+00 3.380830059409438260e+00 1.450000000000000000e+02 1.629556172081719865e+02 5.552151041733782222e+01 6.245813865050481439e+01 2.310000000000000000e+02 2.667333066534276895e+02 2.310000000000000568e+02
9.400000000000000000e+01 2.906924518767074472e-01 4.145266128967871055e-01 2.947809352265054472e-01 1.675040499711298939e-02 1.521198642393662148e-01 6.431990327460338497e-01 2.046811030145999077e-01 2.091183148448136093e-03 1.183184818481848168e+02 2.061980198019801946e+02 8.119927510619987743e+00 9.268477898094303669e+00 6.060000000000000000e+02 1.602437616616302876e+02 5.804096329923237363e+01 6.117544085720155778e+01 2.324327458985273722e+02 2.667282782228988367e+02 2.338677987323871434e+02
9.600000000000000000e+01 3.081312255204695094e-01 4.102062783488379383e-01 2.816624961306925523e-01 5.145376653905105527e-03 2.444018377509933060e-01 6.282922124619696458e-01 1.273059497870372148e-01 1.981866611620282186e-04 1.133977272727272663e+02 1.872159090909090935e+02 2.534039950567943844e+00 2.801983322075650040e+00 8.800000000000000000e+01 1.618752465494324895e+02 5.494366121468732445e+01 6.323606899399496228e+01 2.300000000000000000e+02 2.678931337542923643e+02 2.299999999999999716e+02
9.800000000000000000e+01 3.114529620631341089e-01 4.119132614410365711e-01 2.766337764958293199e-01 5.297805692293973932e-03 2.604138155038172586e-01 6.378196841234606840e-01 1.017665003727221684e-01 2.074474218434100648e-04 1.092926829268292721e+02 1.826829268292682968e+02 3.094006026126727260e+00 2.423855268059480927e+00 8.200000000000000000e+01 1.619137165120369843e+02 5.307678139684014695e+01 6.241893356548759897e+01 2.282192731286978358e+02 2.684192699701564493e+02 2.289383528753852488e+02
1.020000000000000000e+02 3.134805469595879912e-01 3.828712398817186169e-01 3.036482131586933919e-01 5.905820759920723563e-03 2.476476871333176399e-01 5.192560149950510295e-01 2.330962978716311640e-01 2.444261369514362015e-04 1.341009174311926699e+02 1.845412844036697209e+02 2.691968871667431706e+00 3.280557432190993161e+00 1.090000000000000000e+02 1.608237478766900779e+02 5.320743053945966494e+01 6.136118744550938686e+01 2.268788512057274716e+02 2.677482359649895329e+02 2.297607453123034986e+02
1.040000000000000000e+02 2.756068936090350086e-01 2.825352931072674934e-01 4.418578132836974426e-01 8.493013030677371011e-03 9.725437486181298663e-02 1.494632381998351467e-01 7.532823869383519222e-01 5.784647174976556864e-04 2.258521400778210193e+02 2.152529182879377458e+02 4.563593591748786871e+00 4.505319083473081854e+00 2.570000000000000000e+02 1.626631957989906425e+02 5.804428483819629037e+01 6.258942421958769131e+01 2.327829403311029068e+02 2.664042304932665957e+02 2.320714895547386334e+02
1.060000000000000000e+02 3.498675849849904873e-01 3.439895129643740779e-01 3.061429020506353238e-01 7.690495744139683350e-03 3.941348621156367527e-01 3.783144362495496349e-01 2.275507016348136957e-01 3.842923842577671521e-04 1.444285714285714164e+02 1.583869047619047592e+02 3.044455202986767084e+00 4.524964608172689751e+00 1.680000000000000000e+02 1.589573851713330441e+02 5.291467583000917330e+01 5.763730702587923815e+01 2.270000000000000000e+02 2.635584008157273388e+02 2.270000000000000568e+02
1.080000000000000000e+02 2.769467341676454253e-01 3.586577131083278358e-01 3.643955527240266279e-01 6.221310706400453618e-03 5.487861954066169251e-02 4.609012300907547321e-01 4.842201503685837349e-01 2.973783967557052732e-04 1.667435897435897516e+02 2.169487179487179560e+02 3.341410332655487370e+00 3.207486312022953978e+00 1.170000000000000000e+02 1.606549063058162119e+02 5.099823869299649459e+01 6.192390804867442711e+01 2.262175329718909609e+02 2.672054534966044343e+02 2.269341036546218788e+02
44.0  0.02 0.49 0.49 0.01  0.02 0.49 0.49 0.01  0.5 0.01 0.1 0.1 100  0.5 0.866  0.0 0.0  1.0 0.0 
